{
  "main": {
    "id": "aa4b87901d717dc9",
    "type": "split",
    "children": [
      {
        "id": "d9cda751b54fc4e0",
        "type": "tabs",
        "children": [
          {
            "id": "567078ffd2c93f50",
            "type": "leaf",
            "state": {
              "type": "markdown",
              "state": {
                "file": "2_SEM/Теор-вер и статистика/Лекции.md",
                "mode": "source",
                "source": false
              }
            }
          }
        ]
      }
    ],
    "direction": "vertical"
  },
  "left": {
    "id": "095ad8fd636db177",
    "type": "split",
    "children": [
      {
        "id": "be3568c8a9676437",
        "type": "tabs",
        "children": [
          {
            "id": "e1a29e25aa9d5026",
            "type": "leaf",
            "state": {
              "type": "file-explorer",
              "state": {
                "sortOrder": "alphabetical"
              }
            }
          },
          {
            "id": "f52a32f48de260ed",
            "type": "leaf",
            "state": {
              "type": "search",
              "state": {
                "query": "",
                "matchingCase": false,
                "explainSearch": false,
                "collapseAll": false,
                "extraContext": false,
                "sortOrder": "alphabetical"
              }
            }
          },
          {
            "id": "6bac4f9de2a1d837",
            "type": "leaf",
            "state": {
              "type": "bookmarks",
              "state": {}
            }
          }
        ],
        "currentTab": 1
      }
    ],
    "direction": "horizontal",
    "width": 200,
    "collapsed": true
  },
  "right": {
    "id": "60680c78580f7d00",
    "type": "split",
    "children": [
      {
        "id": "e7c140d117155237",
        "type": "tabs",
        "children": [
          {
            "id": "68611b1178ab5ea1",
            "type": "leaf",
            "state": {
              "type": "backlink",
              "state": {
                "file": "2_SEM/Теор-вер и статистика/Лекции.md",
                "collapseAll": false,
                "extraContext": false,
                "sortOrder": "alphabetical",
                "showSearch": false,
                "searchQuery": "",
                "backlinkCollapsed": false,
                "unlinkedCollapsed": true
              }
            }
          },
          {
            "id": "107a5164da26fc71",
            "type": "leaf",
            "state": {
              "type": "outgoing-link",
              "state": {
                "file": "2_SEM/Теор-вер и статистика/Лекции.md",
                "linksCollapsed": false,
                "unlinkedCollapsed": true
              }
            }
          },
          {
            "id": "62c28b13d3f115a9",
            "type": "leaf",
            "state": {
              "type": "tag",
              "state": {
                "sortOrder": "frequency",
                "useHierarchy": true
              }
            }
          },
          {
            "id": "8e84c890280e58b8",
            "type": "leaf",
            "state": {
              "type": "outline",
              "state": {
                "file": "2_SEM/Теор-вер и статистика/Лекции.md"
              }
            }
          },
          {
            "id": "9f7fa8b7db572f8c",
            "type": "leaf",
            "state": {
              "type": "advanced-tables-toolbar",
              "state": {}
            }
          }
        ],
        "currentTab": 4
      }
    ],
    "direction": "horizontal",
    "width": 200,
    "collapsed": true
  },
  "left-ribbon": {
    "hiddenItems": {
      "switcher:Open quick switcher": false,
      "graph:Open graph view": false,
      "canvas:Create new canvas": false,
      "daily-notes:Open today's daily note": false,
      "templates:Insert template": false,
      "command-palette:Open command palette": false,
      "table-editor-obsidian:Advanced Tables Toolbar": false
    }
  },
  "active": "567078ffd2c93f50",
  "lastOpenFiles": [
    "2_SEM/WEB/project/css/textInput.css",
    "2_SEM/WEB/Семантические теги.jpg",
    "2_SEM/WEB/project/AddTaskPage.html",
    "Pasted image 20240228105020.png",
    "Pasted image 20240228104755.png",
    "Pasted image 20240228103847.png",
    "Pasted image 20240228103828.png",
    "2_SEM/ЦЭиС/Формулы когда нет стилуса.md",
    "WEB/Лекции/~$клад вторая лекция.docx",
    "WEB/Лекции/~$Лекция 2.pptx",
    "WEB/Лекции/~$Лекция 1 - Основы WEB-технологий.pptx",
    "2_SEM/Теор-вер и статистика/Лекции.md",
    "2_SEM/ЦЭиС",
    "WEB/Задания на лабораторные работы/~$ 6 Адаптивная вёрстка сайта магазина Кисточка.docx",
    "WEB/Задания на лабораторные работы/~$ 7 bootstrap.docx",
    "2_SEM/Теор-вер и статистика/1.png",
    "2_SEM/Теор-вер и статистика/Pasted image 20240214102938.png",
    "WEB/Задания на лабораторные работы/~$ 5 Блочная вёрстка.docx",
    "WEB/5 lab/css_6/style.css",
    "WEB/5 lab/zadanie_6.html",
    "WEB/4 lab/Webovio/menu.png",
    "WEB/4 lab/Webovio/Webovio.png",
    "WEB/4 lab/Webovio/Webovio.jpg",
    "1_SEM/Math/Лекции Математика.md",
    "Math/Приколюха.md",
    "Math/Лекции Математика.md",
    "Математика/Лекции Математика.md"
  ]
}