<mxfile host="Electron" modified="2024-02-24T20:03:33.629Z" agent="Mozilla/5.0 (Windows NT 10.0; Win64; x64) AppleWebKit/537.36 (KHTML, like Gecko) draw.io/22.1.2 Chrome/114.0.5735.289 Electron/25.9.4 Safari/537.36" etag="d3B31VXVlCWZPCNPnhyD" version="22.1.2" type="device">
  <diagram name="Page-1" id="kmzKRMZbzF4T-3Ix2M1P">
    <mxGraphModel dx="2261" dy="836" grid="1" gridSize="10" guides="1" tooltips="1" connect="1" arrows="1" fold="1" page="1" pageScale="1" pageWidth="827" pageHeight="1169" math="0" shadow="0">
      <root>
        <mxCell id="0" />
        <mxCell id="1" parent="0" />
        <mxCell id="AxwQ-VSdOkrTXo17Ezmo-24" value="" style="edgeStyle=none;shape=connector;rounded=0;orthogonalLoop=1;jettySize=auto;html=1;labelBackgroundColor=default;strokeColor=default;align=center;verticalAlign=middle;fontFamily=Helvetica;fontSize=11;fontColor=default;endArrow=none;endFill=0;" edge="1" parent="1" source="AxwQ-VSdOkrTXo17Ezmo-3" target="AxwQ-VSdOkrTXo17Ezmo-23">
          <mxGeometry relative="1" as="geometry" />
        </mxCell>
        <mxCell id="AxwQ-VSdOkrTXo17Ezmo-70" value="М" style="edgeLabel;html=1;align=center;verticalAlign=middle;resizable=0;points=[];fontSize=11;fontFamily=Helvetica;fontColor=default;" vertex="1" connectable="0" parent="AxwQ-VSdOkrTXo17Ezmo-24">
          <mxGeometry x="-0.42" relative="1" as="geometry">
            <mxPoint x="-1" as="offset" />
          </mxGeometry>
        </mxCell>
        <mxCell id="AxwQ-VSdOkrTXo17Ezmo-48" value="" style="edgeStyle=none;shape=connector;rounded=0;orthogonalLoop=1;jettySize=auto;html=1;labelBackgroundColor=default;strokeColor=default;align=center;verticalAlign=middle;fontFamily=Helvetica;fontSize=11;fontColor=default;endArrow=none;endFill=0;" edge="1" parent="1" source="AxwQ-VSdOkrTXo17Ezmo-3" target="AxwQ-VSdOkrTXo17Ezmo-47">
          <mxGeometry relative="1" as="geometry" />
        </mxCell>
        <mxCell id="AxwQ-VSdOkrTXo17Ezmo-3" value="Мышца" style="rounded=0;whiteSpace=wrap;html=1;fontFamily=Helvetica;fontSize=11;fontColor=default;" vertex="1" parent="1">
          <mxGeometry x="60" y="85" width="95" height="65" as="geometry" />
        </mxCell>
        <mxCell id="AxwQ-VSdOkrTXo17Ezmo-46" value="" style="edgeStyle=none;shape=connector;rounded=0;orthogonalLoop=1;jettySize=auto;html=1;labelBackgroundColor=default;strokeColor=default;align=center;verticalAlign=middle;fontFamily=Helvetica;fontSize=11;fontColor=default;endArrow=none;endFill=0;" edge="1" parent="1" source="AxwQ-VSdOkrTXo17Ezmo-5" target="AxwQ-VSdOkrTXo17Ezmo-45">
          <mxGeometry relative="1" as="geometry" />
        </mxCell>
        <mxCell id="AxwQ-VSdOkrTXo17Ezmo-5" value="Группа мыщц" style="rounded=0;whiteSpace=wrap;html=1;fontFamily=Helvetica;fontSize=11;fontColor=default;" vertex="1" parent="1">
          <mxGeometry x="410" y="85" width="95" height="65" as="geometry" />
        </mxCell>
        <mxCell id="AxwQ-VSdOkrTXo17Ezmo-27" value="" style="edgeStyle=none;shape=connector;rounded=0;orthogonalLoop=1;jettySize=auto;html=1;labelBackgroundColor=default;strokeColor=default;align=center;verticalAlign=middle;fontFamily=Helvetica;fontSize=11;fontColor=default;endArrow=none;endFill=0;" edge="1" parent="1" source="AxwQ-VSdOkrTXo17Ezmo-6" target="AxwQ-VSdOkrTXo17Ezmo-26">
          <mxGeometry relative="1" as="geometry" />
        </mxCell>
        <mxCell id="AxwQ-VSdOkrTXo17Ezmo-72" value="1" style="edgeLabel;html=1;align=center;verticalAlign=middle;resizable=0;points=[];fontSize=11;fontFamily=Helvetica;fontColor=default;" vertex="1" connectable="0" parent="AxwQ-VSdOkrTXo17Ezmo-27">
          <mxGeometry x="-0.4668" relative="1" as="geometry">
            <mxPoint y="-1" as="offset" />
          </mxGeometry>
        </mxCell>
        <mxCell id="AxwQ-VSdOkrTXo17Ezmo-50" value="" style="edgeStyle=none;shape=connector;rounded=0;orthogonalLoop=1;jettySize=auto;html=1;labelBackgroundColor=default;strokeColor=default;align=center;verticalAlign=middle;fontFamily=Helvetica;fontSize=11;fontColor=default;endArrow=none;endFill=0;" edge="1" parent="1" source="AxwQ-VSdOkrTXo17Ezmo-6" target="AxwQ-VSdOkrTXo17Ezmo-49">
          <mxGeometry relative="1" as="geometry" />
        </mxCell>
        <mxCell id="AxwQ-VSdOkrTXo17Ezmo-51" value="" style="edgeStyle=none;shape=connector;rounded=0;orthogonalLoop=1;jettySize=auto;html=1;labelBackgroundColor=default;strokeColor=default;align=center;verticalAlign=middle;fontFamily=Helvetica;fontSize=11;fontColor=default;endArrow=none;endFill=0;" edge="1" parent="1" source="AxwQ-VSdOkrTXo17Ezmo-6" target="AxwQ-VSdOkrTXo17Ezmo-49">
          <mxGeometry relative="1" as="geometry" />
        </mxCell>
        <mxCell id="AxwQ-VSdOkrTXo17Ezmo-53" value="" style="edgeStyle=none;shape=connector;rounded=0;orthogonalLoop=1;jettySize=auto;html=1;labelBackgroundColor=default;strokeColor=default;align=center;verticalAlign=middle;fontFamily=Helvetica;fontSize=11;fontColor=default;endArrow=none;endFill=0;" edge="1" parent="1" source="AxwQ-VSdOkrTXo17Ezmo-6" target="AxwQ-VSdOkrTXo17Ezmo-52">
          <mxGeometry relative="1" as="geometry" />
        </mxCell>
        <mxCell id="AxwQ-VSdOkrTXo17Ezmo-55" value="" style="edgeStyle=none;shape=connector;rounded=0;orthogonalLoop=1;jettySize=auto;html=1;labelBackgroundColor=default;strokeColor=default;align=center;verticalAlign=middle;fontFamily=Helvetica;fontSize=11;fontColor=default;endArrow=none;endFill=0;" edge="1" parent="1" source="AxwQ-VSdOkrTXo17Ezmo-6" target="AxwQ-VSdOkrTXo17Ezmo-54">
          <mxGeometry relative="1" as="geometry" />
        </mxCell>
        <mxCell id="AxwQ-VSdOkrTXo17Ezmo-6" value="упражнение&lt;br&gt;" style="rounded=0;whiteSpace=wrap;html=1;fontFamily=Helvetica;fontSize=11;fontColor=default;" vertex="1" parent="1">
          <mxGeometry x="60" y="381.25" width="95" height="65" as="geometry" />
        </mxCell>
        <mxCell id="AxwQ-VSdOkrTXo17Ezmo-67" value="" style="edgeStyle=none;shape=connector;rounded=0;orthogonalLoop=1;jettySize=auto;html=1;labelBackgroundColor=default;strokeColor=default;align=center;verticalAlign=middle;fontFamily=Helvetica;fontSize=11;fontColor=default;endArrow=none;endFill=0;" edge="1" parent="1" source="AxwQ-VSdOkrTXo17Ezmo-7" target="AxwQ-VSdOkrTXo17Ezmo-66">
          <mxGeometry relative="1" as="geometry" />
        </mxCell>
        <mxCell id="AxwQ-VSdOkrTXo17Ezmo-7" value="тренировка" style="rounded=0;whiteSpace=wrap;html=1;fontFamily=Helvetica;fontSize=11;fontColor=default;" vertex="1" parent="1">
          <mxGeometry x="692.5" y="515.75" width="95" height="65" as="geometry" />
        </mxCell>
        <mxCell id="AxwQ-VSdOkrTXo17Ezmo-36" value="" style="edgeStyle=none;shape=connector;rounded=0;orthogonalLoop=1;jettySize=auto;html=1;labelBackgroundColor=default;strokeColor=default;align=center;verticalAlign=middle;fontFamily=Helvetica;fontSize=11;fontColor=default;endArrow=none;endFill=0;exitX=0.5;exitY=1;exitDx=0;exitDy=0;entryX=0.5;entryY=0;entryDx=0;entryDy=0;" edge="1" parent="1" source="AxwQ-VSdOkrTXo17Ezmo-8" target="AxwQ-VSdOkrTXo17Ezmo-35">
          <mxGeometry relative="1" as="geometry">
            <mxPoint x="750" y="290" as="sourcePoint" />
            <mxPoint x="750" y="340" as="targetPoint" />
          </mxGeometry>
        </mxCell>
        <mxCell id="AxwQ-VSdOkrTXo17Ezmo-77" value="М" style="edgeLabel;html=1;align=center;verticalAlign=middle;resizable=0;points=[];fontSize=11;fontFamily=Helvetica;fontColor=default;" vertex="1" connectable="0" parent="AxwQ-VSdOkrTXo17Ezmo-36">
          <mxGeometry x="-0.6282" relative="1" as="geometry">
            <mxPoint x="-1" y="3" as="offset" />
          </mxGeometry>
        </mxCell>
        <mxCell id="AxwQ-VSdOkrTXo17Ezmo-39" value="" style="edgeStyle=none;shape=connector;rounded=0;orthogonalLoop=1;jettySize=auto;html=1;labelBackgroundColor=default;strokeColor=default;align=center;verticalAlign=middle;fontFamily=Helvetica;fontSize=11;fontColor=default;endArrow=none;endFill=0;" edge="1" parent="1" source="AxwQ-VSdOkrTXo17Ezmo-8" target="AxwQ-VSdOkrTXo17Ezmo-38">
          <mxGeometry relative="1" as="geometry" />
        </mxCell>
        <mxCell id="AxwQ-VSdOkrTXo17Ezmo-41" value="" style="edgeStyle=none;shape=connector;rounded=0;orthogonalLoop=1;jettySize=auto;html=1;labelBackgroundColor=default;strokeColor=default;align=center;verticalAlign=middle;fontFamily=Helvetica;fontSize=11;fontColor=default;endArrow=none;endFill=0;" edge="1" parent="1" source="AxwQ-VSdOkrTXo17Ezmo-8" target="AxwQ-VSdOkrTXo17Ezmo-40">
          <mxGeometry relative="1" as="geometry" />
        </mxCell>
        <mxCell id="AxwQ-VSdOkrTXo17Ezmo-42" value="" style="edgeStyle=none;shape=connector;rounded=0;orthogonalLoop=1;jettySize=auto;html=1;labelBackgroundColor=default;strokeColor=default;align=center;verticalAlign=middle;fontFamily=Helvetica;fontSize=11;fontColor=default;endArrow=none;endFill=0;" edge="1" parent="1" source="AxwQ-VSdOkrTXo17Ezmo-8" target="AxwQ-VSdOkrTXo17Ezmo-40">
          <mxGeometry relative="1" as="geometry" />
        </mxCell>
        <mxCell id="AxwQ-VSdOkrTXo17Ezmo-8" value="расписание тренировок&lt;br&gt;" style="rounded=0;whiteSpace=wrap;html=1;fontFamily=Helvetica;fontSize=11;fontColor=default;" vertex="1" parent="1">
          <mxGeometry x="692.5" y="200" width="95" height="65" as="geometry" />
        </mxCell>
        <mxCell id="AxwQ-VSdOkrTXo17Ezmo-31" value="" style="edgeStyle=none;shape=connector;rounded=0;orthogonalLoop=1;jettySize=auto;html=1;labelBackgroundColor=default;strokeColor=default;align=center;verticalAlign=middle;fontFamily=Helvetica;fontSize=11;fontColor=default;endArrow=none;endFill=0;" edge="1" parent="1" source="AxwQ-VSdOkrTXo17Ezmo-9" target="AxwQ-VSdOkrTXo17Ezmo-30">
          <mxGeometry relative="1" as="geometry" />
        </mxCell>
        <mxCell id="AxwQ-VSdOkrTXo17Ezmo-74" value="М" style="edgeLabel;html=1;align=center;verticalAlign=middle;resizable=0;points=[];fontSize=11;fontFamily=Helvetica;fontColor=default;" vertex="1" connectable="0" parent="AxwQ-VSdOkrTXo17Ezmo-31">
          <mxGeometry x="-0.206" y="2" relative="1" as="geometry">
            <mxPoint x="-3" as="offset" />
          </mxGeometry>
        </mxCell>
        <mxCell id="AxwQ-VSdOkrTXo17Ezmo-57" value="" style="edgeStyle=none;shape=connector;rounded=0;orthogonalLoop=1;jettySize=auto;html=1;labelBackgroundColor=default;strokeColor=default;align=center;verticalAlign=middle;fontFamily=Helvetica;fontSize=11;fontColor=default;endArrow=none;endFill=0;" edge="1" parent="1" source="AxwQ-VSdOkrTXo17Ezmo-9" target="AxwQ-VSdOkrTXo17Ezmo-56">
          <mxGeometry relative="1" as="geometry" />
        </mxCell>
        <mxCell id="AxwQ-VSdOkrTXo17Ezmo-59" value="" style="edgeStyle=none;shape=connector;rounded=0;orthogonalLoop=1;jettySize=auto;html=1;labelBackgroundColor=default;strokeColor=default;align=center;verticalAlign=middle;fontFamily=Helvetica;fontSize=11;fontColor=default;endArrow=none;endFill=0;" edge="1" parent="1" source="AxwQ-VSdOkrTXo17Ezmo-9" target="AxwQ-VSdOkrTXo17Ezmo-58">
          <mxGeometry relative="1" as="geometry" />
        </mxCell>
        <mxCell id="AxwQ-VSdOkrTXo17Ezmo-61" value="" style="edgeStyle=none;shape=connector;rounded=0;orthogonalLoop=1;jettySize=auto;html=1;labelBackgroundColor=default;strokeColor=default;align=center;verticalAlign=middle;fontFamily=Helvetica;fontSize=11;fontColor=default;endArrow=none;endFill=0;" edge="1" parent="1" source="AxwQ-VSdOkrTXo17Ezmo-9" target="AxwQ-VSdOkrTXo17Ezmo-60">
          <mxGeometry relative="1" as="geometry" />
        </mxCell>
        <mxCell id="AxwQ-VSdOkrTXo17Ezmo-63" value="" style="edgeStyle=none;shape=connector;rounded=0;orthogonalLoop=1;jettySize=auto;html=1;labelBackgroundColor=default;strokeColor=default;align=center;verticalAlign=middle;fontFamily=Helvetica;fontSize=11;fontColor=default;endArrow=none;endFill=0;" edge="1" parent="1" source="AxwQ-VSdOkrTXo17Ezmo-9" target="AxwQ-VSdOkrTXo17Ezmo-62">
          <mxGeometry relative="1" as="geometry" />
        </mxCell>
        <mxCell id="AxwQ-VSdOkrTXo17Ezmo-65" value="" style="edgeStyle=none;shape=connector;rounded=0;orthogonalLoop=1;jettySize=auto;html=1;labelBackgroundColor=default;strokeColor=default;align=center;verticalAlign=middle;fontFamily=Helvetica;fontSize=11;fontColor=default;endArrow=none;endFill=0;" edge="1" parent="1" source="AxwQ-VSdOkrTXo17Ezmo-9" target="AxwQ-VSdOkrTXo17Ezmo-64">
          <mxGeometry relative="1" as="geometry" />
        </mxCell>
        <mxCell id="AxwQ-VSdOkrTXo17Ezmo-9" value="список упраженений в тренировке&lt;br&gt;" style="rounded=0;whiteSpace=wrap;html=1;fontFamily=Helvetica;fontSize=11;fontColor=default;" vertex="1" parent="1">
          <mxGeometry x="440" y="380" width="95" height="65" as="geometry" />
        </mxCell>
        <mxCell id="AxwQ-VSdOkrTXo17Ezmo-14" style="rounded=0;orthogonalLoop=1;jettySize=auto;html=1;endArrow=none;endFill=0;entryX=0;entryY=0.5;entryDx=0;entryDy=0;" edge="1" parent="1" source="AxwQ-VSdOkrTXo17Ezmo-13" target="AxwQ-VSdOkrTXo17Ezmo-5">
          <mxGeometry relative="1" as="geometry" />
        </mxCell>
        <mxCell id="AxwQ-VSdOkrTXo17Ezmo-68" value="1" style="edgeLabel;html=1;align=center;verticalAlign=middle;resizable=0;points=[];fontSize=11;fontFamily=Helvetica;fontColor=default;" vertex="1" connectable="0" parent="AxwQ-VSdOkrTXo17Ezmo-14">
          <mxGeometry x="0.3929" y="1" relative="1" as="geometry">
            <mxPoint as="offset" />
          </mxGeometry>
        </mxCell>
        <mxCell id="AxwQ-VSdOkrTXo17Ezmo-16" style="edgeStyle=none;shape=connector;rounded=0;orthogonalLoop=1;jettySize=auto;html=1;entryX=1;entryY=0.5;entryDx=0;entryDy=0;labelBackgroundColor=default;strokeColor=default;align=center;verticalAlign=middle;fontFamily=Helvetica;fontSize=11;fontColor=default;endArrow=none;endFill=0;" edge="1" parent="1" source="AxwQ-VSdOkrTXo17Ezmo-13" target="AxwQ-VSdOkrTXo17Ezmo-3">
          <mxGeometry relative="1" as="geometry" />
        </mxCell>
        <mxCell id="AxwQ-VSdOkrTXo17Ezmo-69" value="М" style="edgeLabel;html=1;align=center;verticalAlign=middle;resizable=0;points=[];fontSize=11;fontFamily=Helvetica;fontColor=default;" vertex="1" connectable="0" parent="AxwQ-VSdOkrTXo17Ezmo-16">
          <mxGeometry x="0.6565" relative="1" as="geometry">
            <mxPoint as="offset" />
          </mxGeometry>
        </mxCell>
        <mxCell id="AxwQ-VSdOkrTXo17Ezmo-13" value="принадлежит к группе мышц" style="rhombus;whiteSpace=wrap;html=1;" vertex="1" parent="1">
          <mxGeometry x="231.25" y="79" width="120" height="77" as="geometry" />
        </mxCell>
        <mxCell id="AxwQ-VSdOkrTXo17Ezmo-25" style="edgeStyle=none;shape=connector;rounded=0;orthogonalLoop=1;jettySize=auto;html=1;entryX=0.5;entryY=0;entryDx=0;entryDy=0;labelBackgroundColor=default;strokeColor=default;align=center;verticalAlign=middle;fontFamily=Helvetica;fontSize=11;fontColor=default;endArrow=none;endFill=0;" edge="1" parent="1" source="AxwQ-VSdOkrTXo17Ezmo-23" target="AxwQ-VSdOkrTXo17Ezmo-6">
          <mxGeometry relative="1" as="geometry" />
        </mxCell>
        <mxCell id="AxwQ-VSdOkrTXo17Ezmo-71" value="М" style="edgeLabel;html=1;align=center;verticalAlign=middle;resizable=0;points=[];fontSize=11;fontFamily=Helvetica;fontColor=default;" vertex="1" connectable="0" parent="AxwQ-VSdOkrTXo17Ezmo-25">
          <mxGeometry x="0.5109" relative="1" as="geometry">
            <mxPoint x="-1" as="offset" />
          </mxGeometry>
        </mxCell>
        <mxCell id="AxwQ-VSdOkrTXo17Ezmo-23" value="Содержится в упражнении&lt;br&gt;" style="rhombus;whiteSpace=wrap;html=1;fontSize=11;rounded=0;" vertex="1" parent="1">
          <mxGeometry x="46.25" y="227.5" width="122.5" height="57.5" as="geometry" />
        </mxCell>
        <mxCell id="AxwQ-VSdOkrTXo17Ezmo-28" style="edgeStyle=none;shape=connector;rounded=0;orthogonalLoop=1;jettySize=auto;html=1;entryX=0;entryY=0.5;entryDx=0;entryDy=0;labelBackgroundColor=default;strokeColor=default;align=center;verticalAlign=middle;fontFamily=Helvetica;fontSize=11;fontColor=default;endArrow=none;endFill=0;" edge="1" parent="1" source="AxwQ-VSdOkrTXo17Ezmo-26" target="AxwQ-VSdOkrTXo17Ezmo-9">
          <mxGeometry relative="1" as="geometry" />
        </mxCell>
        <mxCell id="AxwQ-VSdOkrTXo17Ezmo-73" value="М" style="edgeLabel;html=1;align=center;verticalAlign=middle;resizable=0;points=[];fontSize=11;fontFamily=Helvetica;fontColor=default;" vertex="1" connectable="0" parent="AxwQ-VSdOkrTXo17Ezmo-28">
          <mxGeometry x="0.3454" relative="1" as="geometry">
            <mxPoint as="offset" />
          </mxGeometry>
        </mxCell>
        <mxCell id="AxwQ-VSdOkrTXo17Ezmo-26" value="Содержит &lt;br&gt;упражение" style="rhombus;whiteSpace=wrap;html=1;fontSize=11;rounded=0;" vertex="1" parent="1">
          <mxGeometry x="233.75" y="381.25" width="117.5" height="62.5" as="geometry" />
        </mxCell>
        <mxCell id="AxwQ-VSdOkrTXo17Ezmo-32" style="edgeStyle=none;shape=connector;rounded=0;orthogonalLoop=1;jettySize=auto;html=1;entryX=0;entryY=0.5;entryDx=0;entryDy=0;labelBackgroundColor=default;strokeColor=default;align=center;verticalAlign=middle;fontFamily=Helvetica;fontSize=11;fontColor=default;endArrow=none;endFill=0;" edge="1" parent="1" source="AxwQ-VSdOkrTXo17Ezmo-30" target="AxwQ-VSdOkrTXo17Ezmo-7">
          <mxGeometry relative="1" as="geometry" />
        </mxCell>
        <mxCell id="AxwQ-VSdOkrTXo17Ezmo-75" value="1" style="edgeLabel;html=1;align=center;verticalAlign=middle;resizable=0;points=[];fontSize=11;fontFamily=Helvetica;fontColor=default;" vertex="1" connectable="0" parent="AxwQ-VSdOkrTXo17Ezmo-32">
          <mxGeometry x="0.5075" relative="1" as="geometry">
            <mxPoint as="offset" />
          </mxGeometry>
        </mxCell>
        <mxCell id="AxwQ-VSdOkrTXo17Ezmo-30" value="Содержиться в тренировке&lt;br&gt;" style="rhombus;whiteSpace=wrap;html=1;fontSize=11;rounded=0;" vertex="1" parent="1">
          <mxGeometry x="428.75" y="512" width="117.5" height="72.5" as="geometry" />
        </mxCell>
        <mxCell id="AxwQ-VSdOkrTXo17Ezmo-37" style="edgeStyle=none;shape=connector;rounded=0;orthogonalLoop=1;jettySize=auto;html=1;entryX=0.5;entryY=0;entryDx=0;entryDy=0;labelBackgroundColor=default;strokeColor=default;align=center;verticalAlign=middle;fontFamily=Helvetica;fontSize=11;fontColor=default;endArrow=none;endFill=0;exitX=0.5;exitY=1;exitDx=0;exitDy=0;" edge="1" parent="1" source="AxwQ-VSdOkrTXo17Ezmo-35" target="AxwQ-VSdOkrTXo17Ezmo-7">
          <mxGeometry relative="1" as="geometry">
            <mxPoint x="750" y="450" as="sourcePoint" />
          </mxGeometry>
        </mxCell>
        <mxCell id="AxwQ-VSdOkrTXo17Ezmo-76" value="1" style="edgeLabel;html=1;align=center;verticalAlign=middle;resizable=0;points=[];fontSize=11;fontFamily=Helvetica;fontColor=default;" vertex="1" connectable="0" parent="AxwQ-VSdOkrTXo17Ezmo-37">
          <mxGeometry x="0.4454" relative="1" as="geometry">
            <mxPoint x="-1" as="offset" />
          </mxGeometry>
        </mxCell>
        <mxCell id="AxwQ-VSdOkrTXo17Ezmo-35" value="Содержит тренировку&lt;br&gt;" style="rhombus;whiteSpace=wrap;html=1;fontSize=11;rounded=0;" vertex="1" parent="1">
          <mxGeometry x="691.25" y="350" width="97.5" height="70" as="geometry" />
        </mxCell>
        <mxCell id="AxwQ-VSdOkrTXo17Ezmo-38" value="Дата и время" style="ellipse;whiteSpace=wrap;html=1;fontSize=11;rounded=0;" vertex="1" parent="1">
          <mxGeometry x="640" y="100" width="80" height="35" as="geometry" />
        </mxCell>
        <mxCell id="AxwQ-VSdOkrTXo17Ezmo-40" value="Выполнено" style="ellipse;whiteSpace=wrap;html=1;fontSize=11;rounded=0;" vertex="1" parent="1">
          <mxGeometry x="760" y="103.75" width="80" height="27.5" as="geometry" />
        </mxCell>
        <mxCell id="AxwQ-VSdOkrTXo17Ezmo-45" value="Название" style="ellipse;whiteSpace=wrap;html=1;fontSize=11;rounded=0;" vertex="1" parent="1">
          <mxGeometry x="422.5" y="10" width="70" height="30" as="geometry" />
        </mxCell>
        <mxCell id="AxwQ-VSdOkrTXo17Ezmo-47" value="Название" style="ellipse;whiteSpace=wrap;html=1;fontSize=11;rounded=0;" vertex="1" parent="1">
          <mxGeometry x="72.5" y="10" width="70" height="30" as="geometry" />
        </mxCell>
        <mxCell id="AxwQ-VSdOkrTXo17Ezmo-49" value="Степень нагружженности мышцы" style="ellipse;whiteSpace=wrap;html=1;fontSize=11;rounded=0;" vertex="1" parent="1">
          <mxGeometry x="60" y="512.01" width="92.5" height="61.25" as="geometry" />
        </mxCell>
        <mxCell id="AxwQ-VSdOkrTXo17Ezmo-52" value="Название" style="ellipse;whiteSpace=wrap;html=1;fontSize=11;rounded=0;" vertex="1" parent="1">
          <mxGeometry x="168.75" y="527.63" width="70" height="30" as="geometry" />
        </mxCell>
        <mxCell id="AxwQ-VSdOkrTXo17Ezmo-54" value="Калории" style="ellipse;whiteSpace=wrap;html=1;fontSize=11;rounded=0;" vertex="1" parent="1">
          <mxGeometry x="-23.75" y="527.63" width="70" height="30" as="geometry" />
        </mxCell>
        <mxCell id="AxwQ-VSdOkrTXo17Ezmo-56" value="&lt;u&gt;Порядок выполнения&lt;/u&gt;" style="ellipse;whiteSpace=wrap;html=1;fontSize=11;rounded=0;" vertex="1" parent="1">
          <mxGeometry x="309" y="305.5" width="101" height="31.5" as="geometry" />
        </mxCell>
        <mxCell id="AxwQ-VSdOkrTXo17Ezmo-58" value="Количество&lt;br&gt;" style="ellipse;whiteSpace=wrap;html=1;fontSize=11;rounded=0;" vertex="1" parent="1">
          <mxGeometry x="360" y="260" width="80" height="30" as="geometry" />
        </mxCell>
        <mxCell id="AxwQ-VSdOkrTXo17Ezmo-60" value="Нагрузка" style="ellipse;whiteSpace=wrap;html=1;fontSize=11;rounded=0;" vertex="1" parent="1">
          <mxGeometry x="535" y="260" width="70" height="30" as="geometry" />
        </mxCell>
        <mxCell id="AxwQ-VSdOkrTXo17Ezmo-62" value="Единица изерения количества" style="ellipse;whiteSpace=wrap;html=1;fontSize=11;rounded=0;" vertex="1" parent="1">
          <mxGeometry x="431.25" y="222.5" width="112.5" height="42.5" as="geometry" />
        </mxCell>
        <mxCell id="AxwQ-VSdOkrTXo17Ezmo-64" value="Единица измерения нагрузки&lt;br&gt;" style="ellipse;whiteSpace=wrap;html=1;fontSize=11;rounded=0;" vertex="1" parent="1">
          <mxGeometry x="560" y="300" width="122.5" height="42.5" as="geometry" />
        </mxCell>
        <mxCell id="AxwQ-VSdOkrTXo17Ezmo-66" value="Название" style="ellipse;whiteSpace=wrap;html=1;fontSize=11;rounded=0;" vertex="1" parent="1">
          <mxGeometry x="788.75" y="450" width="70" height="30" as="geometry" />
        </mxCell>
      </root>
    </mxGraphModel>
  </diagram>
</mxfile>
